5 Gemischte Lineare Regression | Statistik in R: eine Einführung für PhonetikerInnen
…
5.2 Mixed Models (LMERs): Einführung

Mit einem Linear Mixed Effect Model (auch: Linear Mixed Effect Regression oder LMER) wird geprüft, ob eine gemessene abhängige Variable von einer oder mehreren unabhängigen Variablen beeinflusst wird. Diese Art von Modellen wird als “gemischt” (mixed) bezeichnet, weil sowohl Variablen, deren Einfluss auf die abhängige Variable für die Forschenden interessant ist (Fixed Effects), als auch Variablen, deren Einfluss uninteressant ist (Random Effects), Teil des Modells sein können. Die Fixed Effects in einem Mixed Model können sowohl kategorial als auch kontinuierlich sein, die Random Effects ausschließlich kategorial.

Damit erweitern wir die einfache und multiple lineare Regression, die nur Fixed Effects als Prädiktoren genutzt haben. In der Phonetik und Linguistik werden häufig die StudienteilnehmerInnen und Items oder Wörter als Random Effects im LMER verwendet. Das liegt daran, dass wir eine zufällige Auswahl an Probanden und/oder Wörtern einer bestimmten Sprache auswählen und hoffen, dass sich die Ergebnisse auf andere Probanden und/oder Wörter derselben Sprache übertragen lassen. Dieser zufällige Auswahlprozess hat zur Folge, dass wir noise in unser Experiment bringen, das wir dann mittels LMER wieder “herausrechnen” können. Während wir also für Fixed Effects einen vorhersagbaren Einfluss auf die abhängige Variable vermuten, ist der Einfluss der Random Effects nicht vorhersagbar, d.h. random.

Schauen wir uns den Data Frame df an, den wir bereits aus früheren Kapiteln kennen (für dieses Kapitel wurde er leicht verändert):

df

## # A tibble: 120 × 5
##       db vowel gender subject word 
##    <dbl> <fct> <fct>  <fct>   <fct>
##  1   100 a     m      S1      w1   
##  2    70 a     m      S2      w1   
##  3    90 a     m      S3      w1   
##  4    60 a     m      S4      w1   
##  5    80 a     m      S5      w1   
##  6    50 a     f      S6      w1   
##  7    40 a     f      S7      w1   
##  8    60 a     f      S8      w1   
##  9    30 a     f      S9      w1   
## 10    20 a     f      S10     w1   
## # ℹ 110 more rows
…
