5 Mixed Linear Regression | Statistics in R: An Introduction for Phoneticians
…
5.2 Mixed Models (LMERs): Introduction

A Linear Mixed Effects Regression (LMER; also: Linear Mixed Model) is used to test whether a measured dependent variable is influenced by one or more independent variables. This type of model is called “mixed” because it can include both variables whose influence on the dependent variable is of interest to researchers (fixed effects) and variables whose influence is arbitrary and therefore uninteresting (random effects). Fixed effects in a mixed model can be categorical or continuous, while random effects are exclusively categorical.

This extends simple and multiple linear regression, which used only fixed effects as predictors. In phonetics and linguistics, study participants and items or words are often used as random effects in LMERs. This is because we select a random sample of participants and/or words from a specific language and hope that the results will be generalizable to other participants and/or words from the same language. This random selection process introduces noise into our experiment, which we can then “remove” using LMER. While we expect fixed effects to have a predictable influence on the dependent variable, the influence of random effects is unpredictable, i.e., random.

Let’s look at the data frame df, which we already know from previous chapters (it has been slightly modified for this chapter):

df

## # A tibble: 120 × 5
##       db vowel gender subject word 
##    <dbl> <fct> <fct>  <fct>   <fct>
##  1   100 a     m      S1      w1   
##  2    70 a     m      S2      w1   
##  3    90 a     m      S3      w1   
##  4    60 a     m      S4      w1   
##  5    80 a     m      S5      w1   
##  6    50 a     f      S6      w1   
##  7    40 a     f      S7      w1   
##  8    60 a     f      S8      w1   
##  9    30 a     f      S9      w1   
## 10    20 a     f      S10     w1   
## # ℹ 110 more rows
…
