4 Multiple Linear Regression | Statistics in R: An Introduction for Phoneticians
…
Thus, we can report: A multiple linear regression with volume and duration as independent variables, including their interaction, showed a significant effect of volume (\(t\) = 22.6, \(p\) < 0.001) and duration (\(t\) = 2.5, \(p\) < 0.05) on the fundamental frequency. Additionally, the interaction was also significant (\(t\) = 7.8, \(p\) < 0.001). The chosen model describes the data better than a model without predictors (\(R^2\) = 0.67, \(F\)[3, 1865] = 1269.6, \(p\) < 0.001).

(Of course, under realistic conditions, we would also test the assumptions about the residuals!)

4.4 Categorical Independent Variables

Now we want to use the data in int to find out if the volume in decibels db is influenced by the vowel type vowel and the gender of the test subject gender.

int

## # A tibble: 120 × 5
##       db vowel gender subject word 
##    <dbl> <fct> <fct>  <fct>   <fct>
##  1   100 a     m      S1      w1   
##  2    70 a     m      S2      w1   
##  3    90 a     m      S3      w1   
##  4    60 a     m      S4      w1   
##  5    80 a     m      S5      w1   
##  6    50 a     f      S6      w1   
##  7    40 a     f      S7      w1   
##  8    60 a     f      S8      w1   
##  9    30 a     f      S9      w1   
## 10    20 a     f      S10     w1   
## # ℹ 110 more rows
…
