3 Simple Linear Regression | Statistics in R: An Introduction for Phoneticians
…
As you may have noticed, I used the augment() function to utilize the results of the linear model in ggplot2. This function comes from the package broom, which we loaded at the beginning and which also provides two other helpful functions: tidy() and glance(). The result of these functions is always a tibble, an object that we can easily process further (unlike the strange regression objects):

queen.lm %>% class

## [1] "lm"

queen.lm %>% augment() %>% class()

## [1] "tbl_df"     "tbl"        "data.frame"

Let’s first take a look at the results of augment():

queen.lm %>% augment()

## # A tibble: 30 × 8
##       f0   age .fitted .resid   .hat .sigma  .cooksd
##    <dbl> <int>   <dbl>  <dbl>  <dbl>  <dbl>    <dbl>
##  1  297.    26    260.  36.3  0.0946   10.5 0.482   
##  2  283.    28    258.  25.2  0.0845   11.7 0.202   
##  3  260.    29    257.   2.74 0.0798   12.8 0.00225 
##  4  258.    30    256.   1.58 0.0753   12.8 0.000694
##  5  262.    31    255.   6.63 0.0710   12.7 0.0115  
##  6  260.    32    254.   5.81 0.0670   12.7 0.00826 
##  7  249.    33    253.  -3.82 0.0632   12.8 0.00334 
##  8  257.    34    252.   5.28 0.0596   12.7 0.00597 
##  9  243.    35    251.  -7.60 0.0563   12.7 0.0116  
## 10  236.    37    248. -12.9  0.0503   12.5 0.0297  
## # ℹ 20 more rows
## # ℹ 1 more variable: .std.resid <dbl>
…
