4 Multiple Lineare Regression | Statistik in R: eine Einführung für PhonetikerInnen
…
Somit können wir berichten: Eine multiple lineare Regression mit Lautstärke und Dauer als unabhängige Variablen mitsamt ihrer Interaktion zeigte einen signifikanten Effekt von Lautstärke (\(t\) = 22.6, \(p\) < 0.001) und Dauer (\(t\) = 2.5, \(p\) < 0.05) auf die Grundfrequenz. Zusätzlich war auch die Interaktion signifikant (\(t\) = 7.8, \(p\) < 0.001). Das gewählte Modell beschreibt die Daten besser als ein Modell ohne Prädiktoren (\(R^2\) = 0.67, \(F\)[3, 1865] = 1269.6, \(p\) < 0.001).

(Natürlich würden wir unter realistischen Bedingungen hier noch die Annahmen über die Residuals prüfen!)

4.4 Kategorische unabhängige Variablen

Nun wollen wir anhand der Daten in int herausfinden, ob die Lautstärke in Dezibel db vom Vokaltyp vowel und dem Geschlecht der Versuchsperson gender beeinflusst wird.

int

## # A tibble: 120 × 5
##       db vowel gender Vpn   Wort 
##    <dbl> <fct> <fct>  <fct> <fct>
##  1   100 a     m      S1    w1   
##  2    70 a     m      S2    w1   
##  3    90 a     m      S3    w1   
##  4    60 a     m      S4    w1   
##  5    80 a     m      S5    w1   
##  6    50 a     f      S6    w1   
##  7    40 a     f      S7    w1   
##  8    60 a     f      S8    w1   
##  9    30 a     f      S9    w1   
## 10    20 a     f      S10   w1   
## # ℹ 110 more rows
…
